Untitled
…
#     
#     
# 2016    

  (hPa)

analysis_sido_day <- analysis_total %>% filter(  == '') %>% group_by() %>% summarise(` (hPa)` = mean(` (hPa)`,na.rm=TRUE))

analysis_sido_day

## # A tibble: 1,096 x 2
##           ` (hPa)`
##    <date>                    <dbl>
##  1 2016-01-01                1021.
##  2 2016-01-02                1015.
##  3 2016-01-03                1010.
##  4 2016-01-04                1012.
##  5 2016-01-05                1015.
##  6 2016-01-06                1014.
##  7 2016-01-07                1013.
##  8 2016-01-08                1012.
##  9 2016-01-09                1015.
## 10 2016-01-10                1016.
## # ... with 1,086 more rows
…
